{
  "$schema": "https://turbo.build/schema.json",
  "pipeline": {
    "build": {
      "cache": false,
      "env": [
        "ASTRO_SITE_URL",
        "ASTRO_SITE_TITLE",
        "ASTRO_SITE_DESCRIPTION"
      ],
      "dependsOn": [
        "^build"
      ],
      "outputs": [
        "dist/**"
      ]
    },
    "dev": {
      "env": [
        "ASTRO_SITE_URL",
        "ASTRO_SITE_TITLE",
        "ASTRO_SITE_DESCRIPTION"
      ]
    },
    "lint": {},
    "preview": {
      "dependsOn": [
        "build"
      ]
    }
  },
  "globalDependencies": [
    "./.env.local"
  ],
  "globalEnv": [
    "ASTRO_SITE_URL",
    "ASTRO_SITE_TITLE",
    "ASTRO_SITE_DESCRIPTION"
  ]
}
